%YAML 1.1
%TAG !u! tag:unity3d.com,2011:
--- !u!114 &11400000
MonoBehaviour:
  m_ObjectHideFlags: 0
  m_CorrespondingSourceObject: {fileID: 0}
  m_PrefabInstance: {fileID: 0}
  m_PrefabAsset: {fileID: 0}
  m_GameObject: {fileID: 0}
  m_Enabled: 1
  m_EditorHideFlags: 0
  m_Script: {fileID: 11500000, guid: b5a62beea3041954c9984bcf77c9a0af, type: 3}
  m_Name: Anime Sword
  m_EditorClassIdentifier: 
  weaponSprite: {fileID: 21300000, guid: 8016adaac4288ed4dadddc56bbbbf067, type: 3}
  Damge: 200
